{
  "artifactGenerations" : [ ],
  "artifactId" : "playground",
  "groupId" : "org.finos.legend.hardik",
  "metamodelDependencies" : [ ],
  "projectDependencies" : [ ],
  "projectId" : "SAMPLE-36629411",
  "projectStructureVersion" : {
    "extensionVersion" : 2,
    "version" : 12
  },
  "projectType" : null
}